{
  "words":
  [
    {
      "level": 0,
      "word": "test",
	  "meaning" : "테스트"
    },
    {
      "level": 0,
       "word": "jiheon",
	   "meaning" : "지헌"
    },
    {
       "level": 0,
       "word": "yuri",
	   "meaning": "유리"
    },
    {
       "level": 0,
       "word": "yunseok",
	   "meaning": "윤석"
    },
    {
       "level": 0,
       "word": "junho",
	   "meaning": "준호"
    }
  ]
}